{
    "============================ OnBoardingPage ============================": "",
    "Get Started": "Get Started",
    "Skip": "Skip",
    "============================ HomePage ============================": "",
    "Birthdays": "Birthdays",
    "Empty list !": "Empty list !",
    "You have no birthdays at this moment.": "You have no birthdays at this moment.",
    "Search for person": "Search for person",
    "Days left": "Days left",
    "============================ DetailsPage ============================": "",
    "Weeks": "Weeks",
    "Days": "Days",
    "Hours": "Hours",
    "Minutes": "Minutes",
    "Note": "Note",
    "Reminders": "Reminders",
    "Enable Notifications": "Enable Notifications",
    "Reminder Date": "Reminder Date",
    "Reminder Time": "Reminder Time",
    "days before": "days before",
    "Age": "Age",
    "Ok": "Ok",
    "Today is": "Today is",
    "birthday.": "birthday.",
    "============================ AddBirthdayPage ============================": "",
    "Add new": "Add new",
    "Update": "Update",
    "Name": "Name",
    "Birthday": "Birthday",
    "Add Birthday": "Add Birthday",
    "Update Birthday": "Update Birthday",
    "Crop Image": "Crop Image",
    "Add birthday date please!": "Add birthday date please!",
    "============================ SettingsPage ============================": "",
    "Settings": "Settings",
    "Dark Theme": "Dark Theme",
    "Notification": "Notification",
    "Language": "Language",
    "Share with your friends": "Share with your friends",
    "Rate app on Google Play": "Rate app on Google Play",
    "============================ UI ============================": "",
    "Are you sure ?": "Are you sure ?",
    "This Birthday will be deleted!": "This Birthday will be deleted!",
    "DISCARD": "DISCARD",
    "CONTINUE": "CONTINUE",
    "TEMP": "TEMP",
    "LAST": "LAST"
}